<?xml version="1.0" encoding="utf-8"?>
<!-- Generator: Adobe Illustrator 18.1.1, SVG Export Plug-In . SVG Version: 6.00 Build 0)  -->
<svg version="1.1" id="XMLID_1_" xmlns="http://www.w3.org/2000/svg" xmlns:xlink="http://www.w3.org/1999/xlink" x="0px" y="0px"
	 viewBox="0 0 185.501 185.5" enable-background="new 0 0 185.501 185.5" xml:space="preserve">
<g id="ColdFusion">
	<g id="Actionscript_1_">
		<circle fill="#26454F" cx="92.7505" cy="92.75" r="92.7505"/>
		<g>
			<g>
				<path fill="#D1D3D4" d="M92.9229,155.9541c-1.8604,0-3.7646-0.0508-5.6602-0.1504c-8.1045-0.4229-14.9697-1.623-20.9893-3.6699
					c-3.9482-1.3408-6.9258-2.7773-9.3711-4.5195c-3.1855-2.2686-5.1152-4.7676-5.7344-7.4268l0.0039-0.001l-0.0342-0.1309
					l0.4834-0.126l-0.3223,0.0771l-0.1611,0.0488l-0.0029-0.0098h0.001c-0.042-0.1768-0.0762-0.334-0.1016-0.4922L37.3487,56.0577
					c0,0-0.1387-0.8975-0.209-1.3164c-0.3623-2.1709-0.0762-4.4141,0.8291-6.4883c1.1172-2.5547,3.168-4.9561,6.0967-7.1387
					c2.4727-1.8438,5.4814-3.4805,9.2002-5.0029c3.4111-1.3955,7.1475-2.5547,11.4229-3.5439
					c8.1143-1.877,16.543-2.8877,25.0527-3.0049c0.7881-0.0107,1.5771-0.0166,2.3672-0.0166c8.377,0,16.249,0.6494,23.3955,1.9287
					c9.3174,1.668,16.4033,3.9736,22.2998,7.2549c4.0625,2.2607,10.8555,7.1406,10.7021,14.4238l-0.4287,0.0723l0.4287-0.0127
					l0.0068,0.0752l-0.0049,0.0908c-0.0869,1.0146-0.1064,1.2451-0.2139,1.7471l-13.833,84.4219
					c-0.0537,0.3154-0.1289,0.625-0.2227,0.9326c-0.1436,0.5088-0.2393,0.7646-0.5332,1.4287
					c-0.123,0.2852-0.4639,0.9355-0.8301,1.4775c-1.0078,1.4922-2.0537,2.458-2.9443,3.2051
					c-1.502,1.2637-3.2656,2.2725-3.9541,2.6484c-2.3857,1.2881-4.3818,2.0312-5.3408,2.3887
					c-3.6279,1.3496-8.3584,2.5234-12.9814,3.2207l-0.6123,0.0908C102.5284,155.6123,97.7764,155.9541,92.9229,155.9541z"/>
			</g>
			<g>
				<path fill="#58595B" d="M92.1081,30.046c7.7981,0,15.6498,0.5496,23.3079,1.9208c7.6348,1.3672,15.3907,3.4414,22.1445,7.1993
					c5.2754,2.9355,10.5781,7.6914,10.4453,13.9765c0,0.0422,0.0038,0.0982,0.0052,0.1448
					c-0.0013-0.0199-0.0038-0.042-0.0048-0.0595c-0.0002-0.0044-0.0004-0.0087-0.0005-0.0131c0,0.0157,0,0.0316,0,0.0316
					s0-0.0085,0-0.0316c0,0.0039,0.0001,0.0083,0.0005,0.0131c0.0015,0.0503,0.0015,0.1006,0.0015,0.1509
					c-0.084,0.9649-0.1025,1.1739-0.2031,1.6426l-13.8369,84.4453c-0.0498,0.291-0.1201,0.5801-0.208,0.8672
					c-0.1387,0.4922-0.2246,0.7246-0.5117,1.3731c-0.1211,0.2793-0.4473,0.8965-0.7872,1.4004
					c-0.9736,1.4414-1.9882,2.3769-2.8515,3.1015c-1.5352,1.291-3.3526,2.3086-3.8721,2.5918
					c-2.3574,1.2735-4.331,2.0078-5.2803,2.3613c-3.5918,1.336-8.2841,2.5-12.8769,3.1934
					c-0.2031,0.0293-0.4063,0.0606-0.6094,0.0898c-4.6359,0.6906-9.346,1.0085-14.0482,1.0085
					c-1.8809,0-3.7604-0.0509-5.6334-0.1491c-7.0381-0.3672-14.1924-1.3789-20.8545-3.6445
					c-3.2432-1.1016-6.4707-2.4785-9.2422-4.4531c-2.4873-1.7715-4.8438-4.1543-5.5371-7.1328
					c0.0049,0.0156,0.0107,0.0312,0.0166,0.0488c-0.0166-0.0625-0.0342-0.125-0.0488-0.1875
					c-0.0014-0.0063-0.0031-0.0123-0.0048-0.0182c-0.0347-0.1488-0.0665-0.2958-0.0909-0.4447c0,0-12.0118-73.2832-13.6855-83.4961
					c-0.125-0.7656-0.0762-0.5254-0.209-1.3184c-0.3467-2.0761-0.0615-4.2441,0.794-6.205
					c1.2236-2.7989,3.4599-5.0918,5.9375-6.9375c2.7549-2.0547,5.8857-3.6289,9.0908-4.9414
					c3.6601-1.4981,7.4775-2.625,11.3457-3.5196c8.1562-1.8867,16.5566-2.8769,24.9473-2.9922
					C90.5343,30.0516,91.3205,30.046,92.1081,30.046 M148.0111,53.2874c0.0009,0.0124,0.0012,0.0239,0.0006,0.0328
					C148.0117,53.3102,148.0115,53.2991,148.0111,53.2874 M51.6094,139.8868c0.0025,0.01,0.0058,0.02,0.0089,0.0306
					c0.0013,0.0054,0.0025,0.0108,0.0038,0.0162C51.6182,139.918,51.6133,139.9024,51.6094,139.8868 M92.1081,29.046
					c-0.7922,0-1.583,0.0056-2.374,0.0166c-8.5449,0.1174-17.0096,1.1328-25.1587,3.0178
					c-4.3019,0.9949-8.0634,2.1621-11.4991,3.5684c-3.7581,1.5389-6.8033,3.1958-9.3099,5.0653
					c-2.9988,2.234-5.1038,4.7031-6.2559,7.3385c-0.9438,2.1634-1.2425,4.5042-0.8641,6.7703
					c0.0693,0.414,0.0879,0.539,0.1089,0.6804c0.0191,0.1288,0.0402,0.2707,0.0995,0.6345l13.6857,83.4967
					c0.0272,0.166,0.062,0.3298,0.1005,0.4953l-0.0016,0.0004l0.0035,0.0141l0.0103,0.0373l0.0004-0.0001l0.0051,0.0173
					c0.0034,0.0179,0.0135,0.0574,0.0253,0.1016l-0.0027,0.0007c0.6473,2.7812,2.6428,5.3788,5.9309,7.7206
					c2.4858,1.7711,5.5048,3.2282,9.5007,4.5854c6.0632,2.0619,12.973,3.271,21.124,3.6963
					c1.9036,0.0998,3.8166,0.1505,5.6855,0.1505c4.8785,0,9.6546-0.343,14.1955-1.0194l0.3115-0.0459l0.2933-0.0432
					c4.6622-0.7039,9.4283-1.8866,13.0828-3.2459c0.9739-0.3626,2.9916-1.114,5.407-2.4187
					c0.7053-0.3845,2.5039-1.4141,4.0404-2.7063c0.9162-0.769,1.9941-1.7638,3.0366-3.3071
					c0.3612-0.5354,0.7208-1.2044,0.876-1.5623c0.2996-0.6765,0.4042-0.9581,0.5568-1.4997
					c0.0957-0.3119,0.1757-0.6454,0.2312-0.9697l13.838-84.4523c0.1052-0.4843,0.1279-0.7455,0.2125-1.7176l0.0038-0.0433v-0.0313
					l0.0013,0.0001l0.005-0.0692l-0.0037-0.0703l-0.0001-0.0036l-0.0026-0.0612c0.1572-7.568-6.7998-12.5791-10.9611-14.8946
					c-5.9464-3.3086-13.0814-5.6314-22.4545-7.3098C108.4159,29.6975,100.5147,29.046,92.1081,29.046L92.1081,29.046z"/>
			</g>
		</g>
		<path fill="#E6E7E8" d="M147.3486,53.5352c0,0.0254,0.0079,0.0527,0.0059,0.0801c0-0.0508-0.0059-0.1016-0.0059-0.1524
			c0.1329-6.1914-5.0898-10.8769-10.288-13.7676c-6.6534-3.7011-14.292-5.7441-21.8125-7.0917
			c-8.3057-1.4864-16.8399-1.9922-25.2803-1.875c-8.2666,0.1132-16.541,1.0878-24.5762,2.9472
			c-3.8096,0.8809-7.5703,1.9903-11.1758,3.4668c-3.1562,1.293-6.2402,2.8438-8.9541,4.8672
			c-2.4404,1.8184-4.6435,4.0762-5.8476,6.834c-1.336,3.0547-1.2608,6.6211,0.456,9.5273c1.7129,2.9004,4.6211,5.043,7.5449,6.7539
			c3.292,1.9278,6.8799,3.3555,10.5381,4.5137c7.8057,2.4727,15.9668,3.7988,24.1504,4.4316
			c8.4453,0.6524,16.961,0.543,25.3819-0.3398c8.0644-0.8437,16.1728-2.3984,23.7421-5.2402
			c3.5098-1.3164,6.9317-2.9649,9.9424-5.1485c2.6895-1.9511,5.1289-4.4746,5.8965-7.6972
			c0.0098-0.0469,0.0615-0.1778,0.0615-0.2246c0.1192-0.5411,0.1348-0.7012,0.2227-1.7247
			C147.3506,53.6407,147.3506,53.5879,147.3486,53.5352C147.3486,53.5743,147.3486,53.5743,147.3486,53.5352
			C147.3486,53.5606,147.3486,53.5879,147.3486,53.5352z"/>
		<path fill="#333E42" d="M93.4746,36.4707c-22.9238-0.1523-41.831,6.7969-42.2314,15.5196
			c-0.3994,8.7246,17.8584,15.9199,40.7822,16.0742c22.9248,0.1504,41.832-6.7969,42.2324-15.5215
			C134.6563,43.8184,116.3994,36.6231,93.4746,36.4707z"/>
		<path fill="#E4F1FB" d="M130.2246,57.9922c-0.041,0.0371-0.0801,0.0703-0.1123,0.0977c-0.7275,0.6211-1.4521,1.1289-2.0351,1.5039
			c-0.4356,0.2734-0.8975,0.5449-1.3936,0.8125c-0.0332,0.0195-0.0664,0.0371-0.1025,0.0566
			c-0.8623,0.461-1.8135,0.9102-2.8428,1.3418c-0.0645,0.0274-0.126,0.0567-0.1934,0.084
			c-5.0644,2.1016-12.0117,3.8145-20.0361,4.6406c-1.5723,0.1563-3.2881,0.293-4.6768,0.3692
			c-2.1211,0.1152-3.9521,0.1543-5.1992,0.164c-0.5429,0.0039-1.0859,0.0059-1.6318,0c-17.9746-0.164-31.5889-4.4492-36.7236-9.1093
			c5.3535-6.043,20.499-10.3457,38.1464-10.2286C110.6231,47.8399,125.0635,52.1192,130.2246,57.9922z"/>
	</g>
	<g>
		<g>
			<path fill="#E4F1FB" stroke="#26454F" stroke-width="0.5" stroke-miterlimit="10" d="M64.8076,145.4395
				c-1.8369-20.0596-3.6738-40.1182-5.5107-60.1768c21.918,6.6856,45.332,6.6856,67.251,0
				c-1.837,20.0586-3.6739,40.1172-5.5108,60.1768C102.7109,151.0284,83.1328,151.0284,64.8076,145.4395z M64.6719,91.3067
				c1.3193,16.8789,2.6377,33.7099,3.9521,50.5224c15.9366,4.083,32.5996,4.0791,48.4903,0.0274
				c1.3134-16.8613,2.624-33.6778,3.9345-50.5186C102.544,96.0547,83.1885,96.0479,64.6719,91.3067z"/>
			<path fill="#26454F" d="M64.6719,91.3067c18.5166,4.7412,37.8721,4.748,56.3769,0.0312
				c-1.3105,16.8408-2.6211,33.6573-3.9345,50.5186c-15.8907,4.0527-32.5528,4.0556-48.4903-0.0274
				C67.3096,125.0176,65.9922,108.1856,64.6719,91.3067z M93.8164,108.4864c0.002-0.4434,0.0029-0.8848,0.0029-1.3272
				c0.001-1.0527-0.0029-1.0644-1.0664-1.4697c-1.6347-0.627-3.3545-0.8301-5.1064-0.8789
				c-5.0254-0.1445-8.7012,1.4492-10.7979,5.249c-1.915,3.4541-1.7959,7.4619-0.708,11.7119
				c0.7735,3.0069,2.295,5.6963,4.8057,7.7207c2.5439,2.0469,5.332,2.793,8.2559,2.5313c1.3779-0.125,2.7197-0.6221,4.0732-1.0323
				c0.5293-0.1601,0.7686-0.5683,0.7461-1.1728c-0.04-1.0088,0-2.0244-0.0039-3.0352c-0.002-0.5957-0.1192-0.6357-0.6758-0.4785
				c-1.2773,0.3614-2.5459,0.8018-3.8447,0.9151c-3.1446,0.2773-5.9844-1.2911-7.3291-4.6133
				c-1.2852-3.1885-1.4512-6.334-0.335-9.2783c1.0567-2.7989,3.4268-4.0401,6.7207-3.8858
				c1.4922,0.0694,2.9082,0.4492,4.2432,1.0694c0.959,0.4443,1.0127,0.4052,1.0156-0.6329
				C93.8145,109.4141,93.8145,108.9502,93.8164,108.4864z M110.0762,105.7891c0.0576-1.1719,0.0791-2.2842,0.1826-3.4053
				c0.0498-0.54-0.1895-0.7549-0.6709-0.791c-2.5605-0.1982-4.9961,0.4111-7.0449,2.3262
				c-1.7442,1.6269-2.3281,3.6181-2.4863,5.7256c-0.0391,0.54-0.0274,1.0781-0.0391,1.6465
				c-0.7207,0.0468-1.3399,0.1005-1.958,0.1025c-0.4287,0.001-0.5928,0.1416-0.583,0.5635
				c0.0176,0.7988,0.0312,1.6025-0.0381,2.4023c-0.0576,0.6572,0.1562,0.9121,0.8506,0.8643
				c0.5351-0.0371,1.0713,0.0381,1.6455,0.0605c-0.0059,0.291-0.0117,0.5401-0.0166,0.7901
				c-0.1006,4.9169-0.1905,9.833-0.3184,14.7509c-0.0156,0.626,0.1758,0.7764,0.7647,0.7129
				c1.2275-0.1318,2.455-0.2129,3.6797-0.3496c0.8252-0.0918,0.8261-0.0947,0.8584-0.9297
				c0.1835-4.9218,0.3662-9.8467,0.5507-14.7705c0.0088-0.2431,0.0186-0.4844,0.0274-0.7275
				c1.0449-0.1885,1.9795-0.3848,2.915-0.5645c0.46-0.0888,0.6572-0.292,0.6621-0.7588c0.0059-0.8398,0.0469-1.6884,0.1211-2.54
				c0.0401-0.4785-0.122-0.6045-0.6133-0.5176c-0.9599,0.1709-1.9199,0.2764-2.9316,0.3965
				c0.0234-0.6279,0.0254-1.1719,0.0693-1.7187c0.0313-0.3594,0.0938-0.7247,0.1905-1.084
				c0.3916-1.4619,1.3945-2.1875,2.9238-2.1914C109.2051,105.7813,109.5928,105.7881,110.0762,105.7891z"/>
			<path fill="#E4F1FB" d="M93.8154,108.4864c-0.0009,0.4638-0.0009,0.9277-0.0029,1.3925
				c-0.0029,1.0381-0.0566,1.0772-1.0156,0.6329c-1.336-0.6202-2.75-1-4.2432-1.0694c-3.2929-0.1553-5.664,1.0869-6.7207,3.8858
				c-1.1162,2.9433-0.9502,6.0898,0.335,9.2783c1.3447,3.3222,4.1845,4.8906,7.3291,4.6133
				c1.2988-0.1133,2.5664-0.5537,3.8447-0.9151c0.5566-0.1572,0.6738-0.1172,0.6758,0.4785
				c0.0039,1.0108-0.0361,2.0264,0.0039,3.0352c0.0234,0.6035-0.2168,1.0127-0.7461,1.1728
				c-1.3535,0.4102-2.6943,0.9073-4.0732,1.0323c-2.9239,0.2617-5.712-0.4844-8.2559-2.5313
				c-2.5107-2.0244-4.0313-4.7138-4.8057-7.7207c-1.0888-4.25-1.207-8.2588,0.708-11.7119
				c2.0967-3.7998,5.7725-5.3935,10.7979-5.249c1.751,0.0488,3.4717,0.2519,5.1064,0.8789c1.0645,0.4053,1.0694,0.417,1.0664,1.4697
				C93.8193,107.6016,93.8184,108.043,93.8154,108.4864z"/>
			<path fill="#E4F1FB" d="M110.0762,105.7891c-0.4844-0.001-0.8701-0.0078-1.2588-0.0068
				c-1.5293,0.0039-2.5322,0.7295-2.9238,2.1914c-0.0967,0.3593-0.1592,0.7246-0.1905,1.084
				c-0.0439,0.5468-0.0459,1.0908-0.0693,1.7187c1.0107-0.1201,1.9717-0.2256,2.9316-0.3965
				c0.4903-0.0869,0.6543,0.0381,0.6133,0.5176c-0.0752,0.8516-0.1142,1.7002-0.1211,2.54c-0.0049,0.4668-0.2031,0.67-0.6621,0.7588
				c-0.9346,0.1797-1.8701,0.376-2.915,0.5645c-0.0088,0.2431-0.0186,0.4844-0.0274,0.7275
				c-0.1836,4.9238-0.3672,9.8477-0.5507,14.7705c-0.0323,0.835-0.0332,0.8379-0.8584,0.9297
				c-1.2256,0.1367-2.4512,0.2178-3.6797,0.3496c-0.5889,0.0645-0.7793-0.0869-0.7647-0.7129
				c0.127-4.9179,0.2178-9.834,0.3184-14.7509c0.0049-0.25,0.0107-0.4991,0.0166-0.7901c-0.5742-0.0224-1.1104-0.0976-1.6455-0.0605
				c-0.6944,0.0478-0.9082-0.2071-0.8506-0.8643c0.0703-0.7998,0.0557-1.6045,0.0381-2.4023
				c-0.0088-0.4219,0.1543-0.5625,0.583-0.5635c0.6181-0.002,1.2373-0.0557,1.958-0.1025c0.0117-0.5684-0.001-1.1065,0.0391-1.6465
				c0.1582-2.1065,0.7412-4.0987,2.4863-5.7256c2.0498-1.9151,4.4844-2.5244,7.0449-2.3262c0.4814,0.0361,0.7197,0.252,0.6709,0.791
				C110.1563,103.5049,110.1338,104.6172,110.0762,105.7891z"/>
		</g>
	</g>
</g>
</svg>
