<?xml version="1.0" encoding="utf-8"?>
<!-- Generator: Adobe Illustrator 18.1.1, SVG Export Plug-In . SVG Version: 6.00 Build 0)  -->
<svg version="1.1" id="XMLID_2_" xmlns="http://www.w3.org/2000/svg" xmlns:xlink="http://www.w3.org/1999/xlink" x="0px" y="0px"
	 viewBox="0 0 185.501 185.5" enable-background="new 0 0 185.501 185.5" xml:space="preserve">
<g id="Dart">
	<circle fill="#1BA3DD" cx="92.7505" cy="92.75" r="92.7505"/>
	<g>
		<g>
			<path fill="#D1D3D4" d="M92.9229,155.9541c-1.8604,0-3.7646-0.0508-5.6602-0.1504c-8.1035-0.4229-14.9697-1.623-20.9893-3.6699
				c-3.9482-1.3408-6.9258-2.7773-9.3711-4.5195c-3.1855-2.2686-5.1152-4.7676-5.7354-7.4268l0.0049-0.001l-0.0342-0.1309
				l0.4834-0.126l-0.3223,0.0771l-0.1611,0.0488l-0.0029-0.0098h0.001c-0.042-0.1768-0.0762-0.334-0.1016-0.4922L37.3487,56.0577
				c0,0-0.1387-0.8975-0.209-1.3164c-0.3623-2.1729-0.0762-4.416,0.8291-6.4883c1.1172-2.5547,3.168-4.9561,6.0967-7.1387
				c2.4727-1.8438,5.4814-3.4805,9.2002-5.0029c3.4111-1.3955,7.1475-2.5547,11.4229-3.5439
				c8.1143-1.877,16.543-2.8877,25.0527-3.0049c0.7881-0.0107,1.5771-0.0166,2.3672-0.0166c8.377,0,16.249,0.6494,23.3955,1.9287
				c9.3174,1.668,16.4033,3.9736,22.2998,7.2549c4.0625,2.2607,10.8555,7.1406,10.7021,14.4238l-0.4287,0.0723l0.4287-0.0127
				l0.0068,0.0752l-0.0049,0.0908c-0.0879,1.0283-0.1094,1.2539-0.2139,1.7461l-13.834,84.4229
				c-0.0527,0.3145-0.1279,0.624-0.2217,0.9326c-0.1436,0.5088-0.2393,0.7646-0.5332,1.4287
				c-0.123,0.2852-0.4639,0.9355-0.8301,1.4775c-1.0098,1.4941-2.0547,2.459-2.9443,3.2051
				c-1.502,1.2637-3.2656,2.2725-3.9541,2.6484c-2.3857,1.2881-4.3818,2.0312-5.3408,2.3887
				c-3.6279,1.3496-8.3584,2.5234-12.9814,3.2207l-0.6123,0.0908C102.5284,155.6124,97.7764,155.9541,92.9229,155.9541z"/>
		</g>
		<g>
			<path fill="#58595B" d="M92.1078,30.046c7.7981,0,15.6501,0.5496,23.3082,1.9208c7.6348,1.3672,15.3907,3.4415,22.1445,7.1993
				c5.2754,2.9355,10.5781,7.6914,10.4453,13.9765c0,0.0422,0.0038,0.0982,0.0052,0.1449c-0.0013-0.0199-0.0038-0.042-0.0048-0.0595
				c-0.0002-0.0044-0.0004-0.0087-0.0005-0.0131c0,0.0158,0,0.0316,0,0.0316s0-0.0085,0-0.0316
				c0,0.0039,0.0001,0.0083,0.0005,0.0131c0.0015,0.0503,0.0015,0.1007,0.0015,0.151c-0.084,0.9648-0.1035,1.1738-0.2031,1.6425
				l-13.8379,84.4453c-0.0488,0.2911-0.1191,0.5801-0.207,0.8672c-0.1387,0.4922-0.2246,0.7246-0.5117,1.3731
				c-0.1211,0.2793-0.4473,0.8965-0.7872,1.4004c-0.9746,1.4414-1.9882,2.3769-2.8515,3.1015
				c-1.5352,1.291-3.3526,2.3086-3.8721,2.5918c-2.3574,1.2735-4.331,2.0078-5.2803,2.3614
				c-3.5918,1.3359-8.2841,2.5-12.8769,3.1933c-0.2031,0.0293-0.4063,0.0606-0.6094,0.0899
				c-4.6359,0.6906-9.3453,1.0084-14.0475,1.0084c-1.8808,0-3.7611-0.0509-5.6341-0.1491
				c-7.0391-0.3672-14.1924-1.3789-20.8545-3.6445c-3.2432-1.1016-6.4707-2.4785-9.2422-4.4531
				c-2.4873-1.7715-4.8438-4.1543-5.5381-7.1328c0.0059,0.0156,0.0117,0.0312,0.0176,0.0488
				c-0.0176-0.0625-0.0342-0.125-0.0488-0.1875c-0.0014-0.0063-0.0031-0.0123-0.0048-0.0182
				c-0.0347-0.1488-0.0665-0.2958-0.0909-0.4447c0,0-12.0118-73.2832-13.6855-83.4961c-0.125-0.7656-0.0762-0.5254-0.209-1.3183
				c-0.3467-2.0762-0.0625-4.2442,0.794-6.2051c1.2236-2.7989,3.4599-5.0918,5.9375-6.9375
				c2.7549-2.0547,5.8857-3.6289,9.0908-4.9414c3.6601-1.4981,7.4775-2.625,11.3457-3.5196
				c8.1562-1.8867,16.5566-2.8769,24.9473-2.9922C90.5343,30.0516,91.3202,30.046,92.1078,30.046 M148.0111,53.2875
				c0.0009,0.0124,0.0012,0.0239,0.0006,0.0329C148.0117,53.3102,148.0115,53.2991,148.0111,53.2875 M51.6094,139.8868
				c0.0025,0.01,0.0058,0.02,0.0089,0.0306c0.0013,0.0054,0.0025,0.0108,0.0038,0.0162
				C51.6182,139.918,51.6133,139.9024,51.6094,139.8868 M92.1078,29.046c-0.7922,0-1.5827,0.0056-2.3737,0.0166
				c-8.5449,0.1174-17.0096,1.1328-25.1587,3.0178c-4.3021,0.9949-8.0635,2.1622-11.4991,3.5684
				c-3.7581,1.5389-6.8033,3.1958-9.3099,5.0653c-2.9988,2.234-5.1038,4.7032-6.2559,7.3385
				c-0.944,2.1613-1.2428,4.5023-0.8641,6.7703c0.0693,0.4141,0.088,0.539,0.1089,0.6804c0.0192,0.1288,0.0402,0.2707,0.0995,0.6343
				l13.6857,83.4967c0.0272,0.1659,0.062,0.3296,0.1004,0.495l-0.0016,0.0004l0.0036,0.0143l0.0103,0.0375l0.0004-0.0001
				l0.0053,0.018c0.0049,0.0239,0.0139,0.0598,0.0247,0.1008l-0.0032,0.001c0.6483,2.7812,2.644,5.3787,5.9318,7.7203
				c2.4859,1.7711,5.5049,3.2282,9.5007,4.5855c6.0633,2.062,12.9731,3.2711,21.124,3.6962
				c1.9039,0.0998,3.8171,0.1505,5.6862,0.1505c4.8785,0,9.6544-0.343,14.1948-1.0193l0.3049-0.045l0.3-0.0443
				c4.6614-0.7036,9.4275-1.8863,13.0826-3.2458c0.9757-0.3634,2.9932-1.1149,5.407-2.4188
				c0.7053-0.3845,2.5039-1.4142,4.0404-2.7063c0.9148-0.7678,1.9916-1.7616,3.0363-3.3067
				c0.3615-0.5358,0.7211-1.2049,0.8762-1.5628c0.2996-0.6765,0.4042-0.9582,0.5568-1.4997
				c0.0968-0.3152,0.1765-0.6498,0.2307-0.9729l13.8385-84.4491c0.106-0.4931,0.1285-0.7525,0.2125-1.7175l0.0038-0.0433v-0.0296
				l0.0012,0l0.0051-0.0706l-0.0038-0.0716v-0.0024l-0.0027-0.0617c0.1573-7.5678-6.7997-12.5789-10.9609-14.8944
				c-5.9465-3.3086-13.0815-5.6314-22.4545-7.3098C108.4159,29.6975,100.5146,29.046,92.1078,29.046L92.1078,29.046z"/>
		</g>
	</g>
	<path fill="#E6E7E8" d="M147.3486,53.5352c0,0.0254,0.0079,0.0527,0.0059,0.0801c0-0.0508-0.0059-0.1016-0.0059-0.1524
		c0.1329-6.1914-5.0898-10.8769-10.288-13.7675c-6.6534-3.7012-14.292-5.7442-21.8125-7.0918
		c-8.3057-1.4864-16.8399-1.9922-25.2813-1.875c-8.2656,0.1132-16.54,1.0879-24.5752,2.9472
		c-3.8096,0.8809-7.5703,1.9903-11.1758,3.4668c-3.1562,1.293-6.2402,2.8438-8.9541,4.8672
		c-2.4404,1.8184-4.6435,4.0762-5.8476,6.834c-1.336,3.0547-1.2608,6.6211,0.456,9.5273c1.7129,2.9004,4.6211,5.043,7.5449,6.7539
		c3.292,1.9278,6.8799,3.3555,10.5381,4.5137c7.8057,2.4727,15.9668,3.7988,24.1504,4.4317
		c8.4453,0.6523,16.961,0.5429,25.3819-0.3399c8.0644-0.8437,16.1728-2.3984,23.7421-5.2402
		c3.5088-1.3164,6.9317-2.9649,9.9424-5.1485c2.6895-1.9511,5.1289-4.4746,5.8965-7.6972c0.0098-0.0469,0.0615-0.1778,0.0615-0.2246
		c0.1192-0.541,0.1348-0.7012,0.2227-1.7246C147.3506,53.6407,147.3506,53.5879,147.3486,53.5352
		C147.3486,53.5743,147.3486,53.5743,147.3486,53.5352C147.3486,53.5606,147.3486,53.5879,147.3486,53.5352z"/>
	<path fill="#333E42" d="M93.4746,36.4708c-22.9238-0.1524-41.831,6.7968-42.2314,15.5195
		c-0.3994,8.7246,17.8584,15.9199,40.7822,16.0742c22.9248,0.1504,41.832-6.7969,42.2324-15.5215
		C134.6563,43.8184,116.3994,36.6231,93.4746,36.4708z"/>
	<path fill="#0881C5" d="M130.2246,57.9922c-0.041,0.0371-0.0801,0.0703-0.1133,0.0977c-0.7265,0.6211-1.4511,1.1289-2.0341,1.5039
		c-0.4356,0.2734-0.8975,0.5449-1.3936,0.8125c-0.0332,0.0195-0.0664,0.0371-0.1025,0.0566
		c-0.8623,0.461-1.8135,0.9102-2.8428,1.3418c-0.0645,0.0274-0.127,0.0567-0.1934,0.084
		c-5.0644,2.1016-12.0117,3.8145-20.0361,4.6406c-1.5723,0.1563-3.2881,0.293-4.6768,0.3692
		c-2.1211,0.1152-3.9521,0.1543-5.1992,0.164c-0.5429,0.004-1.0859,0.0059-1.6328,0c-17.9736-0.164-31.5879-4.4492-36.7226-9.1093
		c5.3535-6.043,20.499-10.3457,38.1464-10.2285C110.6231,47.8399,125.0625,52.1192,130.2246,57.9922z"/>
	<g>
		<g>
			<path fill="#45BFAE" d="M76.7578,99.4629c-1.6816-1.7558-2.5322-2.6484-4.2392-4.4687
				c0.4443,9.3379,0.8877,18.6758,1.332,28.0137c0.043,0.5273,0.0635,0.791,0.1064,1.3164c0.0489,0.6191,0.1914,1.334,0.4092,2.084
				c9.7334,4.5527,19.1338,8.6679,29.6074,11.2617c2.9522-1.7364,4.4356-2.6582,7.4161-4.6211
				c0.0009-0.0039,0.0009-0.0059,0.0019-0.0098C99.4746,122.2129,88.002,110.9825,76.7578,99.4629z"/>
			<path fill="#6CC8BF" d="M74.3662,126.4083c0.001,0,0.001,0.0019,0.002,0c-0.003-0.0118-0.0088-0.0411-0.0088-0.0411
				S74.3613,126.3946,74.3662,126.4083z M111.3916,133.0391 M111.3897,133.0489c-2.9805,1.9629-4.4639,2.8847-7.4161,4.6211
				c-10.4736-2.5899-19.873-6.709-29.6054-11.2617c0.6718,2.3417,2.0283,5.0644,3.4179,6.6191
				c3.9854,4.4766,5.9375,6.6172,9.7266,10.7187c8.3379,0.3008,12.542,0.0059,20.7891-1.4531
				c1.2119-3.6816,1.8291-5.5332,3.0898-9.2539C111.3906,133.043,111.3906,133.045,111.3897,133.0489z"/>
			<path fill="#0A82C5" d="M72.5186,94.9922c-4.6963,6.377-6.9112,9.4336-11.0547,15.3516
				c-0.8955,0.7871-0.2295,3.1426,1.4521,5.1895c2.9014,3.5332,4.336,5.248,7.167,8.5781c1.7149,0.9551,2.5733,1.414,4.2832,2.2969
				c-0.2178-0.75-0.3603-1.4649-0.4092-2.084c-0.0429-0.5254-0.0634-0.7891-0.1064-1.3164
				c-0.4443-9.3379-0.8877-18.6758-1.332-28.0137C72.5186,94.9922,72.5186,94.9922,72.5186,94.9922z"/>
			<path fill="#0081C6" d="M105.7988,95.877c-0.7539-0.082-1.4824-0.1074-2.1464-0.0508c-0.586,0.0469-0.8799,0.0703-1.4668,0.1113
				c-9.878,0.9961-19.8721,0.6739-29.667-0.9453c12.5722,13.1036,25.4297,25.8379,38.8779,38.045c0.0019,0,0.0019,0,0.0039,0
				c1.4648-3.3457,2.21-5.0293,3.7236-8.4297C112.2744,114.9493,109.1524,105.3731,105.7988,95.877z"/>
			<path fill="#1DA3DD" d="M105.7637,95.8731c0,0,0.0263,0.0078,0.0371,0.0078c-0.002-0.0019-0.001-0.0019-0.002-0.0039
				C105.79,95.8731,105.7637,95.8731,105.7637,95.8731z M112.1094,98.1114c-1.3867-1.1367-3.9473-1.9688-6.3086-2.2305
				c3.3584,9.4922,6.4726,19.0703,9.3232,28.7266c-1.5136,3.4004-2.2588,5.084-3.7236,8.4297c-0.002,0-0.002,0-0.0039,0
				c3.208-1.7129,4.8164-2.6329,8.0254-4.6094c0.7373-9.1973,1.1035-13.7969,1.8418-22.9942
				C117.7354,102.6622,115.9004,101.2012,112.1094,98.1114z"/>
			<path fill="#45BFAE" d="M104.3389,91.7813c-2.8819-2.4004-4.3555-3.6406-7.3516-6.2305
				c-1.7305-1.4922-4.1387-1.9277-5.2998-0.9355c-7.9248,4.8086-11.7861,6.8633-19.1689,10.3769
				c9.7949,1.6192,19.789,1.9414,29.667,0.9453c0.5869-0.041,0.8808-0.0644,1.4668-0.1113c0.664-0.0566,1.3925-0.0312,2.1464,0.0508
				C105.2227,94.2422,104.9307,93.4239,104.3389,91.7813z M72.5186,94.9922"/>
		</g>
	</g>
</g>
</svg>
