<?xml version="1.0" encoding="utf-8"?>
<!-- Generator: Adobe Illustrator 18.1.1, SVG Export Plug-In . SVG Version: 6.00 Build 0)  -->
<svg version="1.1" id="XMLID_2_" xmlns="http://www.w3.org/2000/svg" xmlns:xlink="http://www.w3.org/1999/xlink" x="0px" y="0px"
	 viewBox="0 0 185.501 185.5019" enable-background="new 0 0 185.501 185.5019" xml:space="preserve">
<g id="Java">
	<circle fill="#90C4E9" cx="92.7505" cy="92.75" r="92.7505"/>
	<g>
		<path fill="#D1D3D4" d="M92.9195,155.955c-1.8584,0-3.7612-0.0508-5.6562-0.1494c-8.1123-0.4248-14.978-1.626-20.9897-3.6699
			c-3.9487-1.3438-6.9263-2.7793-9.3711-4.5195c-3.1826-2.2666-5.1113-4.7637-5.7324-7.4219l-0.0327-0.1377l0.0439-0.0156
			l-0.0449,0.0107c-0.04-0.1641-0.0757-0.3311-0.103-0.498L37.3492,56.0586c-0.0615-0.375-0.1416-0.915-0.2085-1.3184
			c-0.3638-2.1699-0.0776-4.4121,0.8281-6.4854c1.1143-2.5527,3.1655-4.9551,6.0967-7.1406
			c2.4775-1.8457,5.4868-3.4814,9.1992-5.001c3.4141-1.3975,7.1504-2.5576,11.4224-3.5459
			c8.1211-1.877,16.5508-2.8877,25.0552-3.0049c0.7827-0.0107,1.5649-0.0166,2.3486-0.0166c8.3804,0,16.2578,0.6494,23.4131,1.9287
			c9.3179,1.668,16.4038,3.9736,22.3008,7.2549c4.063,2.2617,10.856,7.1426,10.7021,14.4248l-0.4351,0.0732l0.4351-0.0127
			l0.0063,0.0742l-0.0044,0.0898c-0.0874,1.0283-0.1094,1.2539-0.2139,1.7471l-13.8335,84.4238
			c-0.0532,0.3145-0.1284,0.625-0.2227,0.9316c-0.1416,0.5039-0.2368,0.7598-0.5327,1.4277
			c-0.1245,0.2881-0.4658,0.9404-0.8296,1.4795c-1.0161,1.501-2.0601,2.4629-2.9473,3.2061
			c-1.5693,1.3184-3.4233,2.3584-3.9541,2.6455c-2.418,1.3066-4.4692,2.0664-5.3452,2.3906
			c-3.6133,1.3467-8.3433,2.5195-12.9761,3.2188l-0.606,0.0918C102.5328,155.6142,97.7803,155.955,92.9195,155.955z"/>
		<path fill="#58595B" d="M92.0917,30.0462c7.803,0,15.6605,0.55,23.3244,1.9206c7.6357,1.3671,15.3916,3.4414,22.1455,7.1992
			c5.2754,2.9365,10.5781,7.6914,10.4453,13.9775c0,0.0414,0.0037,0.0971,0.0052,0.1442c-0.0014-0.0197-0.0038-0.0412-0.0048-0.0584
			c-0.0001-0.0042-0.0003-0.0084-0.0004-0.0126c0,0.0157,0,0.0312,0,0.0312s0-0.0084,0-0.0312c0,0.0038,0.0002,0.008,0.0004,0.0126
			c0.0015,0.0495,0.0015,0.0991,0.0015,0.1495c-0.0839,0.9668-0.1035,1.1748-0.2031,1.6425l-13.8379,84.4473
			c-0.0488,0.291-0.1191,0.5801-0.207,0.8652c-0.1387,0.4942-0.2246,0.7247-0.5117,1.3731
			c-0.1211,0.2793-0.4473,0.8984-0.7871,1.4023c-0.9746,1.4395-1.9883,2.377-2.8536,3.1016
			c-1.5341,1.2891-3.3515,2.3086-3.871,2.5898c-2.3575,1.2735-4.3321,2.0098-5.2813,2.3614c-3.5908,1.3379-8.2832,2.5-12.877,3.1933
			c-0.2021,0.0313-0.4042,0.0606-0.6074,0.0918c-4.6371,0.6908-9.3485,1.0076-14.0522,1.0076c-1.8797,0-3.7586-0.0506-5.6304-0.1482
			c-7.0381-0.3691-14.1924-1.3789-20.8545-3.6445c-3.2441-1.1035-6.4707-2.4805-9.2422-4.4532
			c-2.4861-1.7705-4.8414-4.154-5.5361-7.1305c0.0039,0.0159,0.0093,0.0302,0.0146,0.0446
			c-0.0166-0.0625-0.0332-0.125-0.0488-0.1875c-0.0039-0.0156-0.0088-0.0312-0.0127-0.0469
			c0.0039,0.0157,0.0088,0.0293,0.0127,0.045c-0.0371-0.1524-0.0703-0.3067-0.0957-0.461c0,0-12.0098-73.2812-13.6836-83.4951
			c-0.126-0.7646-0.0771-0.5264-0.209-1.3193c-0.3476-2.0743-0.0634-4.2422,0.793-6.2032c1.2227-2.8007,3.46-5.0927,5.9375-6.9394
			c2.7559-2.0537,5.8867-3.6289,9.0898-4.9395c3.6612-1.499,7.4786-2.6269,11.3458-3.5215
			c8.1582-1.8857,16.5585-2.8769,24.9492-2.9921C90.5295,30.0517,91.3099,30.0462,92.0917,30.0462 M148.0121,53.2877
			c0.0009,0.0124,0.0013,0.024,0.0006,0.0334C148.0127,53.3108,148.0125,53.2995,148.0121,53.2877 M51.6553,140.0742
			c0.0003,0.0015,0.0006,0.0028,0.001,0.0042C51.6559,140.077,51.6556,140.0756,51.6553,140.0742 M92.0917,29.0462
			c-0.7864,0-1.5714,0.0056-2.3564,0.0164c-8.5394,0.1172-17.0047,1.1325-25.1606,3.0177
			c-4.2991,0.9945-8.0606,2.1624-11.4995,3.5704c-3.7517,1.535-6.7965,3.1912-9.3084,5.0631
			c-3.0016,2.2373-5.1066,4.7072-6.2564,7.3411c-0.9441,2.1619-1.2425,4.5025-0.8628,6.7685
			c0.066,0.3971,0.0855,0.5283,0.1056,0.6641c0.0199,0.1343,0.0404,0.2728,0.103,0.6526l13.6834,83.4942
			c0.0273,0.1657,0.0619,0.3309,0.1009,0.4942l-0.0017,0.0005l0.0038,0.0154l0.0107,0.0391l0.0269,0.1032l-0.0019,0.0004
			l0.0029,0.0134l0.0019,0.0078c0.6497,2.7802,2.6446,5.3759,5.9293,7.7151c2.4854,1.7691,5.5042,3.2261,9.5003,4.5854
			c6.0559,2.0595,12.9657,3.2686,21.1242,3.6964c1.9037,0.0992,3.8156,0.1496,5.6827,0.1496c4.8851,0,9.6626-0.3427,14.1996-1.0185
			l0.2837-0.0428l0.3294-0.0499c4.6617-0.7035,9.428-1.8863,13.0731-3.2445c0.8842-0.3275,2.959-1.096,5.4074-2.4186
			c0.5418-0.2932,2.4321-1.3537,4.0391-2.704c0.9124-0.7641,1.9881-1.7554,3.0383-3.3065c0.3604-0.5343,0.7203-1.2048,0.8765-1.5651
			c0.3046-0.6878,0.404-0.9555,0.557-1.5007c0.0959-0.3099,0.1758-0.6444,0.2304-0.97l13.8385-84.451
			c0.1021-0.474,0.1266-0.7275,0.2125-1.7178l0.0038-0.0432v-0.0297l0.0014,0.0001l0.005-0.0701l-0.0039-0.0737l-0.0025-0.0624
			c0.1573-7.5657-6.7996-12.5779-10.9608-14.8942c-5.9471-3.3089-13.0824-5.6316-22.4556-7.3098
			C108.4081,29.6977,100.5014,29.0462,92.0917,29.0462L92.0917,29.0462z"/>
	</g>
	<path fill="#E6E7E8" d="M148.0069,53.2168c0,0.0273,0.0078,0.0537,0.0058,0.082c0-0.0527-0.0058-0.1035-0.0058-0.1553
		c0.1347-6.2861-5.168-11.041-10.4453-13.9775c-6.7539-3.7578-14.5098-5.8321-22.1446-7.1992
		c-8.4316-1.5079-17.0976-2.0225-25.6679-1.9043c-8.3907,0.1152-16.791,1.1064-24.9483,2.9921
		c-3.8681,0.8946-7.6845,2.0225-11.3457,3.5215c-3.2041,1.3106-6.3349,2.8858-9.0908,4.9395
		c-2.4766,1.8467-4.7139,4.1387-5.9365,6.9394c-1.3545,3.1016-1.2783,6.7207,0.4638,9.6719
		c1.7383,2.9434,4.6905,5.1192,7.6592,6.8574c3.3418,1.9571,6.9854,3.4043,10.6983,4.5801c7.9238,2.5117,16.2109,3.8574,24.5195,4.5
		c8.5723,0.6621,17.2168,0.5508,25.7676-0.3437c8.1865-0.8575,16.4179-2.4356,24.1035-5.3203
		c3.5625-1.3379,7.0371-3.0098,10.0937-5.2286c2.7305-1.9804,5.2071-4.541,5.9864-7.8144c0.0097-0.0469,0.0625-0.1797,0.0625-0.2256
		c0.1211-0.5518,0.1367-0.7139,0.2265-1.7529C148.0088,53.3242,148.0088,53.2705,148.0069,53.2168
		C148.0069,53.2578,148.0069,53.2578,148.0069,53.2168C148.0069,53.2441,148.0069,53.2705,148.0069,53.2168z"/>
	<path fill="#58595B" d="M93.4756,36.4707c-22.9238-0.1524-41.832,6.7968-42.2324,15.5214
		c-0.4004,8.7227,17.8594,15.92,40.7832,16.0723c22.9238,0.1524,41.832-6.7969,42.2324-15.5215
		C134.6573,43.8193,116.3995,36.623,93.4756,36.4707z"/>
	<path fill="#68CEF2" d="M130.2256,57.9921c-0.0429,0.0372-0.08,0.0704-0.1132,0.0977c-0.7266,0.6211-1.4512,1.1289-2.0352,1.5039
		c-0.4356,0.2734-0.8965,0.5449-1.3936,0.8125c-0.0341,0.0195-0.0673,0.0371-0.1025,0.0567
		c-0.8623,0.4609-1.8125,0.9101-2.8418,1.3417c-0.0664,0.0274-0.1289,0.0567-0.1934,0.084
		c-5.0644,2.1016-12.0117,3.8145-20.0371,4.6407c-1.5722,0.1562-3.2881,0.2929-4.6757,0.3691
		c-2.1211,0.1152-3.9532,0.1543-5.2012,0.1641c-0.541,0.0039-1.084,0.0058-1.6328,0c-17.9727-0.1641-31.5869-4.4493-36.7227-9.1094
		c5.3535-6.041,20.5-10.3447,38.1485-10.2285C110.6241,47.8398,125.0616,52.1191,130.2256,57.9921z"/>
	<g>
		<g>
			<path fill="#E57125" d="M119.9214,123.082c-0.1635,0.043-0.2441,0.0625-0.4077,0.1055c0.0073-0.0957,0.0122-0.1446,0.0195-0.2403
				c0.4415-0.1152,0.6602-0.1718,1.1006-0.292c-0.0078,0.0957-0.0122,0.1436-0.02,0.2393
				c-0.1626,0.0439-0.2436,0.0654-0.4067,0.1094c-0.0381,0.4785-0.0567,0.7197-0.0947,1.1982
				c-0.1138,0.0303-0.1709,0.0449-0.2847,0.0752C119.8653,123.7998,119.8838,123.5595,119.9214,123.082z M122.107,122.5371
				c-0.003,0.0009-0.0039,0.0019-0.0069,0.0029c-0.1997,0.501-0.2988,0.752-0.4975,1.252
				c-0.0737,0.0205-0.1109,0.0302-0.1846,0.0507c-0.1225-0.4091-0.1826-0.6162-0.3061-1.0254
				c-0.002,0.001-0.0035,0.002-0.0054,0.003c-0.0371,0.4541-0.0552,0.6816-0.0923,1.1357c-0.1074,0.0293-0.1611,0.044-0.2685,0.0733
				c0.0463-0.5743,0.0693-0.8614,0.1157-1.4356c0.1587-0.0439,0.2387-0.0674,0.3974-0.1113
				c0.1153,0.3652,0.1719,0.5478,0.2862,0.9131c0.1816-0.4483,0.2739-0.6719,0.456-1.1211
				c0.1577-0.0449,0.2359-0.0694,0.3931-0.1153c-0.0493,0.5752-0.0728,0.8633-0.1221,1.4385
				c-0.1045,0.0303-0.1557,0.0479-0.2602,0.0781c0.0385-0.4541,0.0576-0.6845,0.0962-1.1386H122.107z"/>
			<path fill="#5482A2" d="M81.7701,97.042c0,0-3.085,1.5009,2.2993,2.4902c6.522,1.1933,9.8276,1.1494,17.0415-0.6543
				c0,0,1.8672,0.9892,4.4512,1.6572c-8.6416,4.3457-20.5137,5.4932-27.6372-1.6543C79.2066,98.2675,80.4883,97.6552,81.7701,97.042
				"/>
			<path fill="#5482A2" d="M79.502,88.3671c0,0-3.5039,2.1221,1.9951,3.1758c7.1118,1.3604,12.6865,1.668,22.4522-0.9853
				c0,0,1.309,1.1367,3.3779,1.5595c-8.3867,2.085-25.5859,7.5782-32.1963-1.7509C76.5879,89.7002,78.045,89.0332,79.502,88.3671"/>
			<path fill="#5482A2" d="M117.3457,101.1132c0,0,2.1231,1.3946-2.6889,3.7344c-13.4116,5.957-32.5703,6.8643-45.7212-0.29
				c-2.9077-1.8213,2.3086-2.3565,3.9829-2.4063c1.7471-0.0547,2.769,0.1592,2.769,0.1592
				c-3.3061-2.6533-20.0424-0.1377-8.4194,4.4082C75.3345,109.0937,119.1749,116.7246,117.3457,101.1132"/>
			<path fill="#5482A2" d="M82.8472,79.9502c0,0-15.416,1.4619-5.374,3.9668c4.2397,1.0585,12.6699,1.6113,20.5571,0.666
				c6.4468-0.7754,12.9375-2.8096,12.9375-2.8096s-2.3017,1.2197-3.9741,2.4297c-8.8618,2.9912-35.6226,5.9072-37.5093-3.2569
				C76.649,79.1474,82.8472,79.9502,82.8472,79.9502"/>
			<path fill="#5482A2" d="M110.376,93.081c15.8892-9.9375,9.336-16.3457,4.103-14.416c-1.2832,0.4727-1.8608,0.7695-1.8608,0.7695
				s0.5083-0.7461,1.4258-1.1972c13.6694-7.9268,7.9492,11.1797-4.0005,15.2705C110.0435,93.5078,110.295,93.2724,110.376,93.081"/>
			<path fill="#5482A2" d="M85.1788,114.5586c11.7797,1.5234,30.0986,0.706,36.8925-10.7159c0,0-1.166,3.3252-12.0019,7.0147
				c-11.6113,3.8711-24.4404,4.0254-36.1026,0.2959C73.9668,111.1533,75.8384,113.3271,85.1788,114.5586"/>
			<path fill="#E57125" d="M83.5542,139.539c-1.2109,1.0264-2.4897,1.5235-3.6582,1.374c-1.667-0.2128-2.6142-1.4287-2.6948-3.1416
				c-0.0869-1.8525,0.8237-2.9834,4.7744-2.5703c0.585,0.0616,0.8784,0.0899,1.4639,0.1426
				C83.4864,137.0214,83.5074,137.8613,83.5542,139.539 M87.0591,143.875c-0.0884-5.0577-0.1338-7.586-0.2221-12.6436
				c-0.0567-3.2305-1.9195-5.3906-6.2964-5.8965c-2.5557-0.2949-4.7583-0.0029-6.5117,0.4942
				c0.2563,0.9365,0.3818,1.4023,0.6357,2.3369c1.3794-0.2891,3.1929-0.503,4.9966-0.2774c2.5,0.3125,3.6084,1.4151,3.6679,3.5469
				c0.0181,0.6397,0.0264,0.96,0.0445,1.5996c-0.4932-0.0449-0.7398-0.0674-1.2329-0.1181c-6-0.6143-8.5318,1.166-8.3238,4.8056
				c0.1797,3.1416,1.9873,5.2852,5.2266,5.7305c2.082,0.2861,3.6074-0.4805,5.04-1.7061c0.127,0.7774,0.19,1.166,0.316,1.9424
				C85.4629,143.7783,85.9942,143.8144,87.0591,143.875L87.0591,143.875z"/>
			<path fill="#E57125" d="M98.3887,143.8769c-1.6924,0.0947-2.54,0.125-4.2344,0.1485c-2.0087-7.043-3.0693-10.587-5.2983-17.7383
				c1.5591,0.0576,2.3389,0.0722,3.8989,0.0722c1.3345,4.3448,1.982,6.5069,3.2315,10.8116
				c0.2739,1.2978,0.4092,1.9453,0.6777,3.2412c1.6733-4.7862,2.9439-9.6621,3.6421-14.3223
				c1.5142-0.1084,2.2695-0.1758,3.7808-0.3379C102.8819,131.6923,100.9087,138.2705,98.3887,143.8769"/>
			<path fill="#E57125" d="M114.7857,137.5468c-1.3027,1.417-2.6304,2.3194-3.7915,2.5313
				c-1.6538,0.3017-2.5054-0.6348-2.4238-2.3486c0.0883-1.8526,1.1464-3.2891,5.0507-4.0948
				c0.5791-0.1191,0.8677-0.1797,1.4454-0.3076C114.9541,135.0156,114.898,135.8584,114.7857,137.5468 M117.8399,140.8613
				c0.3901-5.1045,0.5854-7.6524,0.9756-12.7568c0.2495-3.2608-1.3604-4.8809-5.6924-4.0352
				c-2.5342,0.4951-4.7998,1.4775-6.6406,2.5322c0.1723,0.8701,0.2578,1.3047,0.4272,2.1739
				c1.438-0.7266,3.2979-1.5098,5.0894-1.8418c2.4804-0.46,3.4702,0.3173,3.3276,2.4628c-0.043,0.6436-0.063,0.9639-0.106,1.6075
				c-0.4868,0.1074-0.7294,0.1611-1.2172,0.2627c-5.9302,1.2363-8.7427,3.8427-8.8785,7.4716
				c-0.1171,3.1319,1.5425,4.7403,4.7676,4.1827c2.0752-0.3594,3.669-1.6094,5.208-3.2979c0.0533,0.749,0.0786,1.125,0.1309,1.874
				C116.2774,141.2578,116.7989,141.1289,117.8399,140.8613L117.8399,140.8613z"/>
			<path fill="#E57125" d="M70.6192,144.5566c-0.8384,1.3047-2.2583,2.1445-3.836,2.3809
				c-0.7089-1.0245-1.0654-1.5371-1.7807-2.5752c1.186-0.3604,2.1748-1.2412,2.5967-2.1924c0.3618-0.8496,0.4507-2.042,0.228-5.0078
				c-0.6118-8.1485-0.918-12.2246-1.5298-20.3731c1.5151,0.3819,2.2749,0.5606,3.7998,0.8867
				c0.5171,8.0166,0.7764,12.0245,1.2935,20.0411C71.6436,141.6709,71.4532,143.2109,70.6192,144.5566"/>
		</g>
	</g>
	<path fill="#E57125" d="M95.4942,40.2207c5.7598,6.6308-1.5137,12.5976-1.5137,12.5976s14.626-7.5488,7.9092-17.0029
		c-6.2725-8.8174-11.085-13.1983,14.958-28.3027C116.8477,7.5127,75.9688,17.7226,95.4942,40.2207"/>
	<path fill="#E57125" d="M90.1211,14.6211c6.6348-5.2374,10.502-9.9688,12.6387-14.0821c-1.4551-0.1562-2.9209-0.2763-4.3955-0.3652
		c-6.0762,7.8457-17.1055,13.0976-22.3008,20.8974c-5.5713,8.3653,2.7344,17.3526,14.0498,27.5616
		C85.7012,38.6601,70.7364,29.9306,90.1211,14.6211z"/>
</g>
</svg>
