<?xml version="1.0" encoding="utf-8"?>
<!-- Generator: Adobe Illustrator 18.1.1, SVG Export Plug-In . SVG Version: 6.00 Build 0)  -->
<svg version="1.1" id="XMLID_1_" xmlns="http://www.w3.org/2000/svg" xmlns:xlink="http://www.w3.org/1999/xlink" x="0px" y="0px"
	 viewBox="0 0 185.502 185.5" enable-background="new 0 0 185.502 185.5" xml:space="preserve">
<g id="Node">
	<circle fill="#91C641" cx="92.751" cy="92.75" r="92.751"/>
	<g>
		<g>
			<path fill="#47483E" d="M92.9229,155.9541c-1.8604,0-3.7646-0.0508-5.6602-0.1504c-8.1035-0.4229-14.9688-1.623-20.9883-3.6699
				c-3.9473-1.3408-6.9248-2.7764-9.3711-4.5195c-3.1846-2.2676-5.1152-4.7656-5.7363-7.4268l0.0049-0.001l-0.0332-0.1279
				l0.0664-0.0244l-0.0684,0.0166c-0.04-0.167-0.0752-0.3311-0.1025-0.4971L37.3487,56.0577c0,0-0.1387-0.8975-0.209-1.3164
				c-0.3623-2.1748-0.0752-4.4189,0.8301-6.4883c1.1162-2.5547,3.167-4.957,6.0967-7.1387
				c2.4707-1.8428,5.4805-3.4795,9.1992-5.0029c3.4092-1.3955,7.1455-2.5547,11.4228-3.5439
				c8.1143-1.877,16.543-2.8877,25.0527-3.0049c0.7891-0.0107,1.5771-0.0166,2.3672-0.0166c8.377,0,16.249,0.6494,23.3955,1.9287
				c9.3174,1.668,16.4033,3.9736,22.2998,7.2549c4.0625,2.2607,10.8555,7.1406,10.7021,14.4238l-0.4287,0.0723l0.4287-0.0127
				l0.0068,0.0752l-0.0049,0.0908c-0.0879,1.0283-0.1094,1.2539-0.2139,1.7461l-13.834,84.4229
				c-0.0527,0.3145-0.1279,0.624-0.2217,0.9326c-0.1436,0.5088-0.2393,0.7646-0.5332,1.4287
				c-0.123,0.2852-0.4639,0.9355-0.8301,1.4775c-1.0098,1.4941-2.0547,2.459-2.9443,3.2051
				c-1.5039,1.2646-3.2656,2.2734-3.9531,2.6484c-2.3838,1.2871-4.3799,2.0303-5.3389,2.3877
				c-3.6318,1.3506-8.3613,2.5244-12.9844,3.2217l-0.6123,0.0908C102.5284,155.6123,97.7774,155.9541,92.9229,155.9541z"/>
		</g>
		<g>
			<path fill="#33342D" d="M92.1083,30.046c7.7986,0,15.6495,0.5496,23.3077,1.9208c7.6348,1.3672,15.3907,3.4414,22.1446,7.1993
				c5.2754,2.9355,10.5781,7.6914,10.4453,13.9765c0,0.0422,0.0038,0.0984,0.0052,0.1451c-0.0013-0.02-0.0038-0.0422-0.0049-0.0598
				c-0.0001-0.0043-0.0002-0.0087-0.0004-0.0131c0,0.0157,0,0.0316,0,0.0316s0-0.0085,0-0.0316
				c0,0.0039,0.0001,0.0083,0.0004,0.0131c0.0016,0.0503,0.0016,0.1007,0.0016,0.1509c-0.084,0.9649-0.1035,1.1739-0.2031,1.6426
				l-13.8379,84.4453c-0.0488,0.291-0.1191,0.5801-0.207,0.8672c-0.1387,0.4922-0.2246,0.7246-0.5117,1.3731
				c-0.1211,0.2793-0.4473,0.8965-0.7871,1.4004c-0.9745,1.4414-1.9883,2.3769-2.8516,3.1015
				c-1.5351,1.291-3.3516,2.3086-3.8711,2.5918c-2.3574,1.2735-4.332,2.0078-5.2812,2.3613c-3.5918,1.336-8.2832,2.5-12.8771,3.1934
				c-0.2031,0.0293-0.4061,0.0606-0.6094,0.0898c-4.6359,0.6906-9.3454,1.0085-14.0477,1.0085
				c-1.8809,0-3.7607-0.0509-5.6339-0.1491c-7.0391-0.3672-14.1914-1.3789-20.8535-3.6445
				c-3.2442-1.1016-6.4707-2.4785-9.2422-4.4531c-2.4883-1.7715-4.8438-4.1543-5.5391-7.1328
				c0.0059,0.0156,0.0117,0.0312,0.0176,0.0488c-0.0176-0.0625-0.0332-0.125-0.0488-0.1875
				c-0.0038-0.0171-0.0095-0.0322-0.0134-0.0473c0.0039,0.0151,0.0096,0.0302,0.0134,0.0453
				c-0.0371-0.1543-0.0703-0.3066-0.0957-0.4609c0,0-12.0117-73.2832-13.6856-83.4961c-0.125-0.7656-0.0761-0.5254-0.209-1.3184
				c-0.3457-2.0761-0.0625-4.2441,0.795-6.205c1.2226-2.7989,3.459-5.0918,5.9375-6.9375c2.7539-2.0547,5.8847-3.6289,9.0898-4.9414
				c3.6602-1.4981,7.4785-2.625,11.3457-3.5196c8.1563-1.8867,16.5567-2.8769,24.9473-2.9922
				C90.5345,30.0516,91.3207,30.046,92.1083,30.046 M148.0112,53.2878c0.0009,0.0123,0.0012,0.0237,0.0006,0.0325
				C148.0118,53.3102,148.0115,53.2993,148.0112,53.2878 M51.6094,139.8868c0.0001,0.0005,0.0002,0.001,0.0004,0.0015
				C51.6096,139.8878,51.6095,139.8873,51.6094,139.8868 M92.1083,29.046c-0.7924,0-1.5831,0.0056-2.3741,0.0166
				c-8.5449,0.1174-17.0096,1.1328-25.1588,3.0179c-4.3033,0.9955-8.0647,2.1627-11.4991,3.5684
				c-3.7586,1.5392-6.8035,3.196-9.309,5.0654c-2.9995,2.2337-5.1046,4.703-6.2559,7.3387
				c-0.9438,2.1584-1.243,4.4994-0.8651,6.7695c0.0695,0.4145,0.088,0.5394,0.1089,0.6807
				c0.0191,0.1289,0.0402,0.2708,0.0995,0.6346l13.6857,83.4967c0.0264,0.1604,0.0597,0.3186,0.0972,0.4781l-0.0024,0.0005
				l0.0024-0.0005c0.002,0.0082,0.0039,0.0164,0.0059,0.0247l-0.0023,0.0006l0.0023-0.0006
				c0.0001,0.0002,0.0001,0.0004,0.0002,0.0006l-0.0023,0.0006l0.0056,0.0218l0.0095,0.0317
				c0.0099,0.0403,0.0189,0.0756,0.0274,0.1086l-0.0036,0.0011c0.6495,2.7824,2.6457,5.3798,5.933,7.7201
				c2.4868,1.7718,5.5058,3.2289,9.5006,4.5853c6.0634,2.062,12.973,3.2711,21.1229,3.6962
				c1.9039,0.0999,3.8171,0.1505,5.686,0.1505c4.8782,0,9.6542-0.343,14.195-1.0194l0.3174-0.0467l0.2875-0.0424
				c4.6614-0.7036,9.4277-1.8863,13.0828-3.2459c0.9782-0.3643,2.996-1.1158,5.4078-2.4188
				c0.7044-0.384,2.5011-1.4126,4.0394-2.7063c0.915-0.768,1.9919-1.762,3.0363-3.3067c0.3615-0.5358,0.7211-1.2047,0.8762-1.5627
				c0.2996-0.6765,0.4042-0.9582,0.5568-1.4998c0.0967-0.315,0.1765-0.6495,0.2307-0.9728l13.8385-84.4491
				c0.106-0.4933,0.1285-0.7527,0.2125-1.7176l0.0038-0.0433v-0.0307l0.0013,0l0.005-0.0698l-0.0037-0.0703l-0.0001-0.0031
				l-0.0027-0.0621c0.1573-7.5676-6.7997-12.5786-10.9609-14.8941c-5.9464-3.3086-13.0815-5.6313-22.4545-7.3098
				C108.4158,29.6975,100.5147,29.046,92.1083,29.046L92.1083,29.046z"/>
		</g>
	</g>
	<path fill="#E6E7E8" d="M147.3496,53.5352c0,0.0254,0.0079,0.0527,0.0059,0.0801c0-0.0508-0.0059-0.1016-0.0059-0.1524
		c0.1329-6.1914-5.0898-10.8769-10.289-13.7676c-6.6524-3.7011-14.291-5.7441-21.8125-7.0917
		c-8.3047-1.4864-16.8399-1.9922-25.2813-1.875c-8.2656,0.1132-16.539,1.0878-24.5742,2.9472
		c-3.8105,0.8809-7.5703,1.9903-11.1758,3.4668c-3.1562,1.293-6.2402,2.8438-8.955,4.8672
		c-2.4395,1.8184-4.6426,4.0762-5.8477,6.834c-1.3359,3.0547-1.2598,6.6211,0.457,9.5273c1.7129,2.9004,4.6211,5.043,7.5449,6.7539
		c3.2911,1.9278,6.879,3.3555,10.5372,4.5137c7.8066,2.4727,15.9668,3.7988,24.1503,4.4316
		c8.4454,0.6524,16.961,0.543,25.3829-0.3398c8.0644-0.8437,16.1718-2.3984,23.7421-5.2402
		c3.5079-1.3164,6.9317-2.9649,9.9415-5.1485c2.6894-1.9511,5.1289-4.4746,5.8964-7.6972c0.0098-0.0469,0.0625-0.1778,0.0625-0.2246
		c0.1192-0.5411,0.1348-0.7012,0.2227-1.7247C147.3516,53.6407,147.3516,53.5879,147.3496,53.5352
		C147.3496,53.5743,147.3496,53.5743,147.3496,53.5352C147.3496,53.5606,147.3496,53.5879,147.3496,53.5352z"/>
	<path fill="#47483E" stroke="#33342D" stroke-miterlimit="10" d="M93.4746,36.4707c-22.9238-0.1523-41.83,6.7969-42.2304,15.5196
		c-0.4004,8.7246,17.8574,15.9199,40.7812,16.0742c22.9258,0.1504,41.8321-6.7969,42.2324-15.5215
		C134.6563,43.8184,116.4004,36.6231,93.4746,36.4707z"/>
	<path fill="#FFFFFF" d="M130.2246,57.9922c-0.041,0.0371-0.08,0.0703-0.1132,0.0977c-0.7266,0.6211-1.4512,1.1289-2.0332,1.5039
		c-0.4356,0.2734-0.8985,0.5449-1.3946,0.8125c-0.0332,0.0195-0.0664,0.0371-0.1015,0.0566
		c-0.8633,0.461-1.8145,0.9102-2.8438,1.3418c-0.0644,0.0274-0.1269,0.0567-0.1933,0.084
		c-5.0645,2.1016-12.0118,3.8145-20.0352,4.6406c-1.5723,0.1563-3.2891,0.293-4.6777,0.3692
		c-2.1211,0.1152-3.9512,0.1543-5.1993,0.164c-0.5429,0.0039-1.0859,0.0059-1.6328,0c-17.9726-0.164-31.5879-4.4492-36.7226-9.1093
		c5.3535-6.043,20.5-10.3457,38.1465-10.2286C110.6231,47.8399,125.0625,52.1192,130.2246,57.9922z"/>
	<g>
		<g>
			<path fill="#8EC74E" d="M92.919,143.168c-0.7012,0-1.4014-0.2031-2.0186-0.5967c-2.5791-1.6787-3.8838-2.5703-6.5176-4.4551
				c-0.9824-0.6709-0.5146-0.8261-0.1982-0.9091c1.2813-0.3369,1.5352-0.4209,2.9111-1.1485
				c0.1436-0.0752,0.3379-0.0302,0.4893,0.0703c2.0303,1.375,3.0371,2.0293,5.0312,3.2832c0.1807,0.1065,0.4366,0.1055,0.6036,0
				c7.7763-4.7509,11.8349-7.5625,20.0019-14.2226c0.1904-0.1543,0.3174-0.4024,0.3311-0.6299
				c0.5781-9.5127,0.8662-14.2705,1.4443-23.7822c0.0137-0.2324-0.0986-0.417-0.2939-0.4863
				c-8.1729-2.711-12.5166-4.5186-21.4356-9.2051c-0.206-0.1104-0.4805-0.1104-0.6885,0c-8.916,4.6875-13.2607,6.497-21.4336,9.209
				c-0.1992,0.0654-0.3144,0.2587-0.3007,0.4843c0.5781,9.5118,0.8671,14.2676,1.4453,23.7793
				c0.0136,0.2276,0.1484,0.4727,0.3447,0.627c2.2373,1.8262,3.3516,2.7002,5.5693,4.3769c2.9981,2.0371,4.7305,0.418,4.6768-1.3828
				c-0.2793-9.3398-0.417-14.0088-0.6963-23.3476c-0.0098-0.3301,0.2588-0.5567,0.6035-0.5186
				c1.085,0.1201,1.6279,0.1729,2.7158,0.2608c0.3399,0.0273,0.626,0.3066,0.6319,0.6367
				c0.1767,9.3291,0.2656,13.9922,0.4424,23.3222c0.0771,4.0606-2.0069,6.2891-5.6788,5.7608
				c-1.1289-0.1621-2.0117-0.2774-4.5498-2.0576c-2.1044-1.6485-3.163-2.5049-5.2832-4.2891
				c-1.3095-1.1045-2.1914-2.7842-2.3017-4.334c-0.6768-9.539-1.0147-14.3066-1.6914-23.8457
				c-0.1094-1.5488,0.6308-2.7441,1.957-3.1484c8.1934-2.5225,12.5537-4.2393,21.5254-8.7481c1.418-0.6982,3.3232-0.6982,4.7305,0
				c8.9697,4.5098,13.3359,6.2217,21.5263,8.7471c1.3272,0.4092,2.0703,1.6006,1.96,3.1494
				c-0.6768,9.5391-1.0156,14.3067-1.6924,23.8457c-0.1103,1.5498-0.9941,3.2266-2.3047,4.336
				c-8.0849,6.8154-12.1084,9.7099-19.831,14.622C94.3272,142.9649,93.6299,143.168,92.919,143.168z"/>
			<path fill="#8EC74E" d="M99.1475,126.6807c-8.8125,0.6348-10.7266-4.001-10.7725-7.4482
				c-0.0039-0.3282,0.2559-0.5772,0.5869-0.5625c1.0684,0.0478,1.6016,0.0644,2.6709,0.08
				c0.2979,0.0039,0.5499,0.2198,0.5957,0.5078c0.4219,2.6758,1.5997,4.2168,6.9864,3.8282
				c4.2871-0.3096,6.1328-1.6328,6.2158-3.9248c0.0478-1.3223-0.417-1.9688-7.1914-2.2227
				c-5.6611-0.2119-9.2119-1.7148-9.2617-6.1924c-0.0459-4.1289,3.5937-6.2988,9.7246-6.6836
				c6.8877-0.4326,10.1396,1.083,10.3535,5.8868c0.0078,0.165-0.0596,0.3427-0.1797,0.4853
				c-0.1162,0.1377-0.2822,0.2402-0.4502,0.2695c-1.081,0.1885-1.6211,0.2725-2.706,0.4278c-0.2813,0.04-0.5225-0.125-0.5723-0.3819
				c-0.5293-2.7343-2.1309-3.3642-6.5029-3.0898c-4.8955,0.3076-5.4698,1.8193-5.4707,3.0469
				c-0.001,1.4873,0.6884,2.1533,7.1699,2.457c6.415,0.3008,9.3437,0.7305,9.1308,5.168
				C109.2608,122.8086,105.5284,126.2207,99.1475,126.6807z"/>
		</g>
	</g>
</g>
</svg>
