<?xml version="1.0" encoding="utf-8"?>
<!-- Generator: Adobe Illustrator 18.1.1, SVG Export Plug-In . SVG Version: 6.00 Build 0)  -->
<svg version="1.1" id="XMLID_2_" xmlns="http://www.w3.org/2000/svg" xmlns:xlink="http://www.w3.org/1999/xlink" x="0px" y="0px"
	 viewBox="0 0 185.5 185.501" enable-background="new 0 0 185.5 185.501" xml:space="preserve">
<g id="Windows_8">
	<g id="C_3_">
		<circle fill="#2BABE2" cx="92.75" cy="92.7505" r="92.75"/>
		<g>
			<g>
				<path fill="#D1D3D4" d="M92.9209,155.9541c-1.8594,0-3.7627-0.0498-5.6582-0.1489c-8.1084-0.4243-14.9746-1.625-20.9902-3.6709
					c-3.9502-1.3433-6.9277-2.7793-9.3711-4.519c-3.1855-2.27-5.1152-4.769-5.7344-7.4277l0.0039-0.001
					c-0.0127-0.0439-0.0234-0.0879-0.0332-0.1318l0.4834-0.1211l-0.2676,0.0562l-0.2158,0.0649
					c-0.001-0.0039-0.0068-0.0186-0.0068-0.0186l0.002-0.0005c-0.041-0.1748-0.0732-0.3276-0.0986-0.4819L37.3487,56.0581
					L37.25,55.4292c-0.0215-0.1431-0.04-0.2705-0.1104-0.6885c-0.3633-2.1689-0.0771-4.4121,0.8281-6.4863
					c1.1172-2.5542,3.168-4.9565,6.0967-7.1401c2.4766-1.8457,5.4863-3.4814,9.2012-5.002
					c3.4131-1.3975,7.1494-2.5571,11.4229-3.5449c8.1162-1.877,16.5449-2.8882,25.0527-3.0054
					c0.7822-0.0107,1.5664-0.0161,2.3506-0.0161c8.3828,0,16.2598,0.6489,23.4121,1.9287
					c9.3154,1.6675,16.4014,3.9727,22.2998,7.2544c4.0625,2.2612,10.8555,7.1421,10.7021,14.4248l-0.4316,0.0732l0.4316-0.0132
					l0.001,0.041l0.0059,0.0342l-0.002,0.0669l-0.0029,0.0225c-0.0879,1.0288-0.1094,1.2549-0.2139,1.7466l-13.834,84.4238
					c-0.0527,0.3145-0.1279,0.6245-0.2227,0.9321c-0.1416,0.5063-0.2373,0.7622-0.5322,1.4287
					c-0.124,0.2861-0.4648,0.938-0.8301,1.4785c-1.0117,1.4956-2.0557,2.459-2.9443,3.2046
					c-1.5137,1.272-3.2705,2.2754-3.9561,2.6475c-2.4053,1.2993-4.3896,2.0361-5.3438,2.3906
					c-3.6182,1.3467-8.3477,2.52-12.9766,3.2192l-0.6104,0.0908C102.5303,155.6133,97.7784,155.9541,92.9209,155.9541z"/>
			</g>
			<g>
				<path fill="#58595B" d="M92.0915,30.0458c7.8032,0,15.6607,0.5497,23.3246,1.921c7.6347,1.3667,15.3906,3.4414,22.1445,7.1992
					c5.2754,2.936,10.5781,7.6909,10.4453,13.9771c0,0.0422,0.0038,0.0986,0.0053,0.146c-0.0013-0.0201-0.0038-0.0425-0.0049-0.0602
					c-0.0001-0.0043-0.0002-0.0087-0.0004-0.0131c0,0.0157,0,0.0314,0,0.0314s0-0.0084,0-0.0314
					c0,0.0039,0.0002,0.0084,0.0004,0.0131c0.0015,0.0499,0.0015,0.0997,0.0015,0.1495c-0.084,0.9663-0.1036,1.1748-0.2032,1.6426
					l-13.8379,84.4468c-0.0488,0.291-0.1191,0.5801-0.207,0.8662c-0.1387,0.4932-0.2245,0.7246-0.5117,1.3731
					c-0.1211,0.2793-0.4473,0.8974-0.7871,1.4012c-0.9746,1.4406-1.9883,2.377-2.8516,3.1016
					c-1.5351,1.29-3.3535,2.3086-3.873,2.5908c-2.3574,1.2735-4.3301,2.0088-5.2793,2.3613c-3.5918,1.337-8.2852,2.5-12.877,3.1934
					c-0.2031,0.0303-0.4062,0.0606-0.6093,0.0908c-4.6368,0.6907-9.3474,1.008-14.0503,1.008c-1.8799,0-3.7595-0.0507-5.6314-0.1486
					c-7.0391-0.3682-14.1933-1.3789-20.8555-3.6445c-3.2421-1.1026-6.4707-2.4796-9.2421-4.4532
					c-2.4864-1.7714-4.8438-4.1552-5.5372-7.1337c0.0059,0.0166,0.0118,0.0322,0.0176,0.0488
					c-0.0176-0.0625-0.0351-0.125-0.0488-0.1875c-0.0022-0.0093-0.005-0.0182-0.0078-0.0271c-0.033-0.145-0.064-0.2899-0.088-0.4358
					c0,0-12.0117-73.2822-13.6856-83.4956c-0.125-0.7651-0.0761-0.5264-0.2089-1.3188c-0.3477-2.0752-0.0625-4.2432,0.7929-6.2041
					c1.2246-2.7998,3.461-5.0923,5.9375-6.939c2.7559-2.0537,5.8867-3.6284,9.0918-4.9399
					c3.6602-1.4985,7.4766-2.626,11.3457-3.5205c8.1563-1.8862,16.5567-2.877,24.9473-2.9927
					C90.5285,30.0513,91.3097,30.0458,92.0915,30.0458 M148.0112,53.2891c0.0008,0.0118,0.0012,0.0228,0.0005,0.0317
					C148.0118,53.3109,148.0115,53.3002,148.0112,53.2891 M51.6094,139.8877c0.0017,0.0069,0.0038,0.0138,0.006,0.0208
					c0.0019,0.0084,0.0038,0.0168,0.0057,0.0251C51.6172,139.918,51.6133,139.9034,51.6094,139.8877 M92.0915,29.0458
					c-0.7864,0-1.5721,0.0055-2.3572,0.0164c-8.5434,0.1178-17.0081,1.1333-25.1589,3.0183
					c-4.2991,0.9939-8.0605,2.1615-11.4993,3.5693c-3.7542,1.5361-6.7997,3.1925-9.3104,5.0635
					c-2.9992,2.2365-5.104,4.7061-6.2562,7.3401c-0.9442,2.1644-1.2424,4.5051-0.863,6.77c0.0691,0.4122,0.0877,0.5377,0.1086,0.679
					c0.0191,0.1294,0.0401,0.2714,0.0997,0.636l13.6857,83.4961c0.0273,0.166,0.0621,0.3304,0.0994,0.4948l-0.001,0.0003
					l0.001,0.0043l0.0071,0.0278h0.0001l0.0015,0.0063l0.006,0.0193c0.0089,0.0377,0.0185,0.0754,0.0286,0.1131l-0.0031,0.0008
					c0.6475,2.7811,2.6429,5.3789,5.9308,7.7214c2.4839,1.7689,5.5027,3.226,9.5004,4.5856
					c6.0596,2.0606,12.9697,3.2697,21.1252,3.6964c1.9033,0.0995,3.8156,0.15,5.6837,0.15c4.8819,0,9.6587-0.3428,14.1976-1.0189
					l0.4139-0.0617l0.1954-0.0291c4.6631-0.7042,9.4294-1.887,13.0784-3.2453c0.9636-0.3578,2.9705-1.103,5.4058-2.4186
					c0.7004-0.3805,2.492-1.4034,4.041-2.7051c0.9143-0.7674,1.9905-1.7607,3.0365-3.3068c0.3611-0.5354,0.7208-1.205,0.8763-1.5638
					c0.3002-0.6781,0.4049-0.9598,0.5568-1.5002c0.0964-0.3124,0.1763-0.6471,0.2307-0.9716l13.8384-84.4503
					c0.1062-0.4932,0.1287-0.7526,0.2126-1.7178l0.0038-0.0432v-0.0334l0.0016,0.0001l0.0046-0.0675l-0.0037-0.071l-0.0026-0.0643
					c0.1573-7.5658-6.7997-12.5774-10.9608-14.8933c-5.9481-3.3094-13.0832-5.6322-22.4547-7.3098
					C108.4106,29.6974,100.5038,29.0458,92.0915,29.0458L92.0915,29.0458z"/>
			</g>
		</g>
		<path fill="#E6E7E8" d="M148.0059,53.2159c0,0.0273,0.0078,0.0542,0.0059,0.082c0-0.0518-0.0059-0.1025-0.0059-0.1548
			c0.1348-6.2861-5.168-11.041-10.4453-13.977c-6.7539-3.7579-14.5098-5.8326-22.1445-7.1993
			c-8.4317-1.5088-17.0957-2.0229-25.6661-1.9048c-8.3925,0.1158-16.7929,1.1065-24.9492,2.9927
			c-3.8672,0.8946-7.6855,2.022-11.3457,3.5205c-3.2051,1.3116-6.3359,2.8863-9.0898,4.94
			c-2.4785,1.8467-4.7149,4.1391-5.9375,6.9389c-1.3555,3.1016-1.2793,6.7212,0.4629,9.6724
			c1.7383,2.9439,4.6914,5.1187,7.6601,6.8569c3.3418,1.9571,6.9844,3.4053,10.6973,4.5811
			c7.9258,2.5107,16.2109,3.8574,24.5195,4.5c8.5723,0.6621,17.2188,0.5508,25.7676-0.3447
			c8.1875-0.8575,16.418-2.4356,24.1035-5.3203c3.5625-1.337,7.0371-3.0098,10.0938-5.2276c2.7304-1.9805,5.207-4.542,5.9863-7.8149
			c0.0098-0.0469,0.0625-0.1792,0.0625-0.2256c0.1211-0.5513,0.1367-0.7139,0.2266-1.7529
			C148.0079,53.3243,148.0079,53.2701,148.0059,53.2159C148.0059,53.2569,148.0059,53.2569,148.0059,53.2159
			C148.0059,53.2432,148.0059,53.2701,148.0059,53.2159z"/>
		<path fill="#58595B" d="M93.4747,36.4707c-22.9239-0.1523-41.8321,6.7969-42.2325,15.5205
			c-0.3984,8.7242,17.8594,15.92,40.7832,16.0728c22.9239,0.1519,41.8321-6.7969,42.2325-15.521
			C134.6563,43.8189,116.3985,36.6231,93.4747,36.4707z"/>
		<path fill="#268EB2" d="M130.2247,57.9917c-0.0411,0.0371-0.0801,0.0703-0.1133,0.0987
			c-0.7266,0.6211-1.4512,1.1279-2.0352,1.5029c-0.4355,0.2744-0.8965,0.5459-1.3926,0.8135
			c-0.0332,0.0195-0.0664,0.0371-0.1035,0.0566c-0.8613,0.46-1.8125,0.9092-2.8418,1.3418
			c-0.0644,0.0274-0.1269,0.0557-0.1933,0.083c-5.0645,2.1026-12.0117,3.8145-20.0371,4.6416
			c-1.5723,0.1553-3.2871,0.293-4.6758,0.3692c-2.1211,0.1152-3.9531,0.1533-5.1992,0.164c-0.543,0.0039-1.086,0.0049-1.6329,0
			c-17.9746-0.164-31.5878-4.4492-36.7226-9.1093c5.3535-6.0425,20.498-10.3458,38.1465-10.2291
			C110.6231,47.8394,125.0625,52.1187,130.2247,57.9917z"/>
	</g>
	<g>
		<g>
			<g transform="matrix(0.91521282,0,0,0.91521282,136.33212,-206.23114)">
				<g transform="translate(109.60155,-54.548234)">
					<g>
						<path fill="#2BABE2" d="M-187.0725,381.3263
							c9.1562,1.4714,13.9249,1.6725,23.5121,0.9651c0.1312,8.5202,0.1942,12.7809,0.3254,21.3006
							c-9.0345-0.4146-13.562-1.1433-22.3309-3.6392C-186.1676,392.5024-186.4696,388.7773-187.0725,381.3263z M-163.2178,406.044
							c0.1344,8.5277,0.1984,12.7917,0.3318,21.3194c-8.4221-1.646-12.6838-2.9503-21.0228-6.5697
							c-0.5943-7.4521-0.8898-11.1783-1.4843-18.6304C-176.6785,404.7493-172.181,405.5245-163.2178,406.044z M-160.6645,382.0081
							c11.0001-1.2303,21.7845-4.1113,31.9694-8.4391c-0.8291,10.3918-1.2431,15.5883-2.0722,25.9801
							c-11.6595,3.478-17.7534,4.2986-29.7489,4.1076C-160.576,394.9977-160.6047,390.6676-160.6645,382.0081z M-130.9967,402.5048
							c-0.8269,10.3459-1.2409,15.5178-2.0689,25.8638c-10.5423,1.4298-16.1261,1.3353-27.282-0.5805
							c-0.0746-8.5955-0.1142-12.8935-0.191-21.4894C-148.6145,406.6048-142.5644,405.8462-130.9967,402.5048z"/>
					</g>
				</g>
			</g>
		</g>
	</g>
</g>
</svg>
